{
  "result": [
    {
      "id": "afa26d6f-690a-4e9b-a857-453a0a4a9274",
      "short_id": "afa26d6f",
      "project_id": "b923848a-fc0d-4683-8147-005c9da1c7a1",
      "project_name": "battle-fes",
      "environment": "production",
      "url": "https://afa26d6f.battle-fes.pages.dev",
      "created_on": "2026-05-03T18:14:32.666187Z",
      "modified_on": "2026-05-03T18:14:55.918756Z",
      "latest_stage": {
        "name": "deploy",
        "started_on": "2026-05-03T18:14:46.669952Z",
        "ended_on": "2026-05-03T18:14:55.918756Z",
        "status": "success"
      },
      "deployment_trigger": {
        "type": "github:push",
        "metadata": {
          "branch": "master",
          "commit_hash": "f71a03e6f907e7fb5be03d74a8f2a3b12398d44f",
          "commit_message": "モバイルのヒーロー花火と横スクロール overflow を修正\n\n- 花火 .hero-firework が 380px固定 で iPhone 390px 幅では中央集中していた\n- max-width: 700px のメディアクエリで 180px に縮小、配置を 4隅 (left/right: 0) に固定\n- html に overflow-x: clip を追加して layout viewport の意図しない拡張を防止\n- #vote::before の width も 100% に制限\n\nPlaywright (iPhone 13 emulation) で window.innerWidth=390, offenders=[] を確認\n\nCo-Authored-By: Claude Opus 4.7 (1M context) \u003cnoreply@anthropic.com\u003e",
          "commit_dirty": false
        }
      },
      "stages": [
        {
          "name": "queued",
          "started_on": "2026-05-03T18:14:32.828614Z",
          "ended_on": "2026-05-03T18:14:32.833084Z",
          "status": "success"
        },
        {
          "name": "initialize",
          "started_on": "2026-05-03T18:14:32.833084Z",
          "ended_on": "2026-05-03T18:14:34.710348Z",
          "status": "success"
        },
        {
          "name": "clone_repo",
          "started_on": "2026-05-03T18:14:34.710348Z",
          "ended_on": "2026-05-03T18:14:38.719418Z",
          "status": "success"
        },
        {
          "name": "build",
          "started_on": "2026-05-03T18:14:38.719418Z",
          "ended_on": "2026-05-03T18:14:46.669952Z",
          "status": "success"
        },
        {
          "name": "deploy",
          "started_on": "2026-05-03T18:14:46.669952Z",
          "ended_on": "2026-05-03T18:14:55.918756Z",
          "status": "success"
        }
      ],
      "build_config": {
        "build_command": "",
        "destination_dir": "public",
        "build_caching": null,
        "root_dir": "",
        "web_analytics_tag": null,
        "web_analytics_token": null
      },
      "source": {
        "type": "github",
        "config": {
          "owner": "magurophone",
          "repo_name": "battle_fes",
          "production_branch": "master",
          "pr_comments_enabled": false
        }
      },
      "env_vars": {
        "ADMIN_TOKEN": {
          "type": "secret_text",
          "value": ""
        }
      },
      "kv_namespaces": {
        "BATTLE_FES_VOTE_STORE": {
          "namespace_id": "6a7f993b3ff1446f9a5774b3a2a50f7a"
        }
      },
      "compatibility_date": "2026-03-14",
      "compatibility_flags": [],
      "build_image_major_version": 3,
      "usage_model": "bundled",
      "aliases": null,
      "is_skipped": false,
      "production_branch": "master",
      "uses_functions": true
    },
    {
      "id": "a0bf943e-ca80-4d46-ba47-8d6198914874",
      "short_id": "a0bf943e",
      "project_id": "b923848a-fc0d-4683-8147-005c9da1c7a1",
      "project_name": "battle-fes",
      "environment": "production",
      "url": "https://a0bf943e.battle-fes.pages.dev",
      "created_on": "2026-05-03T18:03:19.936619Z",
      "modified_on": "2026-05-03T18:03:42.049012Z",
      "latest_stage": {
        "name": "deploy",
        "started_on": "2026-05-03T18:03:33.840029Z",
        "ended_on": "2026-05-03T18:03:42.049012Z",
        "status": "success"
      },
      "deployment_trigger": {
        "type": "github:push",
        "metadata": {
          "branch": "master",
          "commit_hash": "db03ef8d367e9d76860df7417c4c0057d082ace7",
          "commit_message": "sunburst の回転速度を 60s → 72s（20%減速）\n\nPlaywright getComputedStyle で animation-duration: 72s を確認\n\nCo-Authored-By: Claude Opus 4.7 (1M context) \u003cnoreply@anthropic.com\u003e",
          "commit_dirty": false
        }
      },
      "stages": [
        {
          "name": "queued",
          "started_on": "2026-05-03T18:03:20.074607Z",
          "ended_on": "2026-05-03T18:03:20.080694Z",
          "status": "success"
        },
        {
          "name": "initialize",
          "started_on": "2026-05-03T18:03:20.080694Z",
          "ended_on": "2026-05-03T18:03:23.822812Z",
          "status": "success"
        },
        {
          "name": "clone_repo",
          "started_on": "2026-05-03T18:03:23.822812Z",
          "ended_on": "2026-05-03T18:03:26.955289Z",
          "status": "success"
        },
        {
          "name": "build",
          "started_on": "2026-05-03T18:03:26.955289Z",
          "ended_on": "2026-05-03T18:03:33.840029Z",
          "status": "success"
        },
        {
          "name": "deploy",
          "started_on": "2026-05-03T18:03:33.840029Z",
          "ended_on": "2026-05-03T18:03:42.049012Z",
          "status": "success"
        }
      ],
      "build_config": {
        "build_command": "",
        "destination_dir": "public",
        "build_caching": null,
        "root_dir": "",
        "web_analytics_tag": null,
        "web_analytics_token": null
      },
      "source": {
        "type": "github",
        "config": {
          "owner": "magurophone",
          "repo_name": "battle_fes",
          "production_branch": "master",
          "pr_comments_enabled": false
        }
      },
      "env_vars": {
        "ADMIN_TOKEN": {
          "type": "secret_text",
          "value": ""
        }
      },
      "kv_namespaces": {
        "BATTLE_FES_VOTE_STORE": {
          "namespace_id": "6a7f993b3ff1446f9a5774b3a2a50f7a"
        }
      },
      "compatibility_date": "2026-03-14",
      "compatibility_flags": [],
      "build_image_major_version": 3,
      "usage_model": "bundled",
      "aliases": null,
      "is_skipped": false,
      "production_branch": "master",
      "uses_functions": true
    },
    {
      "id": "1d00e43f-86c9-4291-89c1-89afab69c0c0",
      "short_id": "1d00e43f",
      "project_id": "b923848a-fc0d-4683-8147-005c9da1c7a1",
      "project_name": "battle-fes",
      "environment": "production",
      "url": "https://1d00e43f.battle-fes.pages.dev",
      "created_on": "2026-05-03T17:07:53.690064Z",
      "modified_on": "2026-05-03T17:08:13.363886Z",
      "latest_stage": {
        "name": "deploy",
        "started_on": "2026-05-03T17:08:04.882115Z",
        "ended_on": "2026-05-03T17:08:13.363886Z",
        "status": "success"
      },
      "deployment_trigger": {
        "type": "github:push",
        "metadata": {
          "branch": "master",
          "commit_hash": "72e18c83bed263ad88ecb00edb0c9b90dc123ae1",
          "commit_message": "sunburst をradial fadeマスクで端処理 + Playwrightで実機確認\n\n- Playwright + chromium でローカル投票セクションをスクリーンショット撮影し、\n  実描画を確認しながら値を調整した\n- mask-image を二層化:\n  layer0 = 中央寄りの radial-gradient (alpha)\n  layer1 = sunburst PNG (luminance)\n  mask-composite: intersect で交差を取り、矩形端ぶつ切りを除去\n- 撮影時に「右下に光が漏れて見える」のは body::after の夕焼けグロウであり、\n  sunburst::before のマスク漏れではないことも確認\n\n.gitignore に .tooling/（playwright 等の検証ツール）を追加\n\nCo-Authored-By: Claude Opus 4.7 (1M context) \u003cnoreply@anthropic.com\u003e",
          "commit_dirty": false
        }
      },
      "stages": [
        {
          "name": "queued",
          "started_on": "2026-05-03T17:07:54.215Z",
          "ended_on": "2026-05-03T17:07:54.221479Z",
          "status": "success"
        },
        {
          "name": "initialize",
          "started_on": "2026-05-03T17:07:54.221479Z",
          "ended_on": "2026-05-03T17:07:55.86951Z",
          "status": "success"
        },
        {
          "name": "clone_repo",
          "started_on": "2026-05-03T17:07:55.86951Z",
          "ended_on": "2026-05-03T17:07:58.314177Z",
          "status": "success"
        },
        {
          "name": "build",
          "started_on": "2026-05-03T17:07:58.314177Z",
          "ended_on": "2026-05-03T17:08:04.882115Z",
          "status": "success"
        },
        {
          "name": "deploy",
          "started_on": "2026-05-03T17:08:04.882115Z",
          "ended_on": "2026-05-03T17:08:13.363886Z",
          "status": "success"
        }
      ],
      "build_config": {
        "build_command": "",
        "destination_dir": "public",
        "build_caching": null,
        "root_dir": "",
        "web_analytics_tag": null,
        "web_analytics_token": null
      },
      "source": {
        "type": "github",
        "config": {
          "owner": "magurophone",
          "repo_name": "battle_fes",
          "production_branch": "master",
          "pr_comments_enabled": false
        }
      },
      "env_vars": {
        "ADMIN_TOKEN": {
          "type": "secret_text",
          "value": ""
        }
      },
      "kv_namespaces": {
        "BATTLE_FES_VOTE_STORE": {
          "namespace_id": "6a7f993b3ff1446f9a5774b3a2a50f7a"
        }
      },
      "compatibility_date": "2026-03-14",
      "compatibility_flags": [],
      "build_image_major_version": 3,
      "usage_model": "bundled",
      "aliases": null,
      "is_skipped": false,
      "production_branch": "master",
      "uses_functions": true
    },
    {
      "id": "d16d28db-ad99-418f-86d4-f20cedd3274b",
      "short_id": "d16d28db",
      "project_id": "b923848a-fc0d-4683-8147-005c9da1c7a1",
      "project_name": "battle-fes",
      "environment": "production",
      "url": "https://d16d28db.battle-fes.pages.dev",
      "created_on": "2026-05-03T16:58:22.657189Z",
      "modified_on": "2026-05-03T16:58:49.895015Z",
      "latest_stage": {
        "name": "deploy",
        "started_on": "2026-05-03T16:58:41.207937Z",
        "ended_on": "2026-05-03T16:58:49.895015Z",
        "status": "success"
      },
      "deployment_trigger": {
        "type": "github:push",
        "metadata": {
          "branch": "master",
          "commit_hash": "3389bc25d319ffab293bab5cbe6f60b1cdc64d16",
          "commit_message": "sunburst を mask-mode: luminance 方式へ変更\n\n- 前回の mix-blend-mode: screen は #vote の isolation: isolate により\n  blend対象が無く、黒背景がそのまま四角として描画されていた\n- sunburst PNG を luminance マスクとして使い、温色のラジアルグラデーションを\n  そのマスク形状に切り抜く方式に変更\n- 黒い四角は原理的に出ない（黒=透明、明部=可視）\n\nCo-Authored-By: Claude Opus 4.7 (1M context) \u003cnoreply@anthropic.com\u003e",
          "commit_dirty": false
        }
      },
      "stages": [
        {
          "name": "queued",
          "started_on": "2026-05-03T16:58:22.804944Z",
          "ended_on": "2026-05-03T16:58:22.809897Z",
          "status": "success"
        },
        {
          "name": "initialize",
          "started_on": "2026-05-03T16:58:22.809897Z",
          "ended_on": "2026-05-03T16:58:28.404196Z",
          "status": "success"
        },
        {
          "name": "clone_repo",
          "started_on": "2026-05-03T16:58:28.404196Z",
          "ended_on": "2026-05-03T16:58:31.464259Z",
          "status": "success"
        },
        {
          "name": "build",
          "started_on": "2026-05-03T16:58:31.464259Z",
          "ended_on": "2026-05-03T16:58:41.207937Z",
          "status": "success"
        },
        {
          "name": "deploy",
          "started_on": "2026-05-03T16:58:41.207937Z",
          "ended_on": "2026-05-03T16:58:49.895015Z",
          "status": "success"
        }
      ],
      "build_config": {
        "build_command": "",
        "destination_dir": "public",
        "build_caching": null,
        "root_dir": "",
        "web_analytics_tag": null,
        "web_analytics_token": null
      },
      "source": {
        "type": "github",
        "config": {
          "owner": "magurophone",
          "repo_name": "battle_fes",
          "production_branch": "master",
          "pr_comments_enabled": false
        }
      },
      "env_vars": {
        "ADMIN_TOKEN": {
          "type": "secret_text",
          "value": ""
        }
      },
      "kv_namespaces": {
        "BATTLE_FES_VOTE_STORE": {
          "namespace_id": "6a7f993b3ff1446f9a5774b3a2a50f7a"
        }
      },
      "compatibility_date": "2026-03-14",
      "compatibility_flags": [],
      "build_image_major_version": 3,
      "usage_model": "bundled",
      "aliases": null,
      "is_skipped": false,
      "production_branch": "master",
      "uses_functions": true
    },
    {
      "id": "55d7997d-cfa4-4db2-9316-d0ccfb84d86d",
      "short_id": "55d7997d",
      "project_id": "b923848a-fc0d-4683-8147-005c9da1c7a1",
      "project_name": "battle-fes",
      "environment": "production",
      "url": "https://55d7997d.battle-fes.pages.dev",
      "created_on": "2026-05-03T16:54:58.23806Z",
      "modified_on": "2026-05-03T16:55:22.303062Z",
      "latest_stage": {
        "name": "deploy",
        "started_on": "2026-05-03T16:55:12.505652Z",
        "ended_on": "2026-05-03T16:55:22.303062Z",
        "status": "success"
      },
      "deployment_trigger": {
        "type": "github:push",
        "metadata": {
          "branch": "master",
          "commit_hash": "c8f35e6471499dcec7358be796628455f4521c11",
          "commit_message": "投票セクションの光を sunburst.png へ差し替え\n\n- godrays は白背景＋上端ぶつ切りの問題があり、screen blend と相性が悪かった\n- sunburst_warm_001.png は黒背景＋中央放射でscreen blendと完璧に噛み合い、四隅が自然に消えるためマスク不要\n- アニメーションをゆらぎから60sの低速回転に変更（中央放射光は回転で映える）\n\nCo-Authored-By: Claude Opus 4.7 (1M context) \u003cnoreply@anthropic.com\u003e",
          "commit_dirty": false
        }
      },
      "stages": [
        {
          "name": "queued",
          "started_on": "2026-05-03T16:54:58.437799Z",
          "ended_on": "2026-05-03T16:54:58.445276Z",
          "status": "success"
        },
        {
          "name": "initialize",
          "started_on": "2026-05-03T16:54:58.445276Z",
          "ended_on": "2026-05-03T16:55:00.993464Z",
          "status": "success"
        },
        {
          "name": "clone_repo",
          "started_on": "2026-05-03T16:55:00.993464Z",
          "ended_on": "2026-05-03T16:55:04.077954Z",
          "status": "success"
        },
        {
          "name": "build",
          "started_on": "2026-05-03T16:55:04.077954Z",
          "ended_on": "2026-05-03T16:55:12.505652Z",
          "status": "success"
        },
        {
          "name": "deploy",
          "started_on": "2026-05-03T16:55:12.505652Z",
          "ended_on": "2026-05-03T16:55:22.303062Z",
          "status": "success"
        }
      ],
      "build_config": {
        "build_command": "",
        "destination_dir": "public",
        "build_caching": null,
        "root_dir": "",
        "web_analytics_tag": null,
        "web_analytics_token": null
      },
      "source": {
        "type": "github",
        "config": {
          "owner": "magurophone",
          "repo_name": "battle_fes",
          "production_branch": "master",
          "pr_comments_enabled": false
        }
      },
      "env_vars": {
        "ADMIN_TOKEN": {
          "type": "secret_text",
          "value": ""
        }
      },
      "kv_namespaces": {
        "BATTLE_FES_VOTE_STORE": {
          "namespace_id": "6a7f993b3ff1446f9a5774b3a2a50f7a"
        }
      },
      "compatibility_date": "2026-03-14",
      "compatibility_flags": [],
      "build_image_major_version": 3,
      "usage_model": "bundled",
      "aliases": null,
      "is_skipped": false,
      "production_branch": "master",
      "uses_functions": true
    },
    {
      "id": "31a89983-027d-4950-afef-48799acb0dbf",
      "short_id": "31a89983",
      "project_id": "b923848a-fc0d-4683-8147-005c9da1c7a1",
      "project_name": "battle-fes",
      "environment": "production",
      "url": "https://31a89983.battle-fes.pages.dev",
      "created_on": "2026-05-03T16:48:24.588981Z",
      "modified_on": "2026-05-03T16:48:44.480528Z",
      "latest_stage": {
        "name": "deploy",
        "started_on": "2026-05-03T16:48:36.259339Z",
        "ended_on": "2026-05-03T16:48:44.480528Z",
        "status": "success"
      },
      "deployment_trigger": {
        "type": "github:push",
        "metadata": {
          "branch": "master",
          "commit_hash": "b6b2842c77b474c0a6edb4a48ccb5775874a73b1",
          "commit_message": "投票セクション godrays の端を radial-gradient マスクでフェードアウト\n\nPNGの矩形境界がそのまま見えていたため、楕円のマスクで端を透明に溶かす\n\nCo-Authored-By: Claude Opus 4.7 (1M context) \u003cnoreply@anthropic.com\u003e",
          "commit_dirty": false
        }
      },
      "stages": [
        {
          "name": "queued",
          "started_on": "2026-05-03T16:48:25.109592Z",
          "ended_on": "2026-05-03T16:48:25.11331Z",
          "status": "success"
        },
        {
          "name": "initialize",
          "started_on": "2026-05-03T16:48:25.11331Z",
          "ended_on": "2026-05-03T16:48:26.884097Z",
          "status": "success"
        },
        {
          "name": "clone_repo",
          "started_on": "2026-05-03T16:48:26.884097Z",
          "ended_on": "2026-05-03T16:48:29.816496Z",
          "status": "success"
        },
        {
          "name": "build",
          "started_on": "2026-05-03T16:48:29.816496Z",
          "ended_on": "2026-05-03T16:48:36.259339Z",
          "status": "success"
        },
        {
          "name": "deploy",
          "started_on": "2026-05-03T16:48:36.259339Z",
          "ended_on": "2026-05-03T16:48:44.480528Z",
          "status": "success"
        }
      ],
      "build_config": {
        "build_command": "",
        "destination_dir": "public",
        "build_caching": null,
        "root_dir": "",
        "web_analytics_tag": null,
        "web_analytics_token": null
      },
      "source": {
        "type": "github",
        "config": {
          "owner": "magurophone",
          "repo_name": "battle_fes",
          "production_branch": "master",
          "pr_comments_enabled": false
        }
      },
      "env_vars": {
        "ADMIN_TOKEN": {
          "type": "secret_text",
          "value": ""
        }
      },
      "kv_namespaces": {
        "BATTLE_FES_VOTE_STORE": {
          "namespace_id": "6a7f993b3ff1446f9a5774b3a2a50f7a"
        }
      },
      "compatibility_date": "2026-03-14",
      "compatibility_flags": [],
      "build_image_major_version": 3,
      "usage_model": "bundled",
      "aliases": null,
      "is_skipped": false,
      "production_branch": "master",
      "uses_functions": true
    },
    {
      "id": "d993bacd-d491-415a-b68c-ac9dcc0e1bfe",
      "short_id": "d993bacd",
      "project_id": "b923848a-fc0d-4683-8147-005c9da1c7a1",
      "project_name": "battle-fes",
      "environment": "production",
      "url": "https://d993bacd.battle-fes.pages.dev",
      "created_on": "2026-05-03T16:43:31.650704Z",
      "modified_on": "2026-05-03T16:43:52.142479Z",
      "latest_stage": {
        "name": "deploy",
        "started_on": "2026-05-03T16:43:42.864913Z",
        "ended_on": "2026-05-03T16:43:52.142479Z",
        "status": "success"
      },
      "deployment_trigger": {
        "type": "github:push",
        "metadata": {
          "branch": "master",
          "commit_hash": "c6459bbeee97947e946888b22fadc4bcf47bb0f3",
          "commit_message": "新デザイン統合: ロゴ画像/花火/godrays/チーム背景を反映\n\n- public/assets/ に design-handoff のロゴ・エフェクト・チーム背景画像を追加\n- ヒーローを文字タイトルから logo-B-trim.png + sublogo-colorsing-trim.png へ差し替え、四隅に花火4連エフェクトを追加\n- 投票セクションに godrays 背景演出と紺色＋ぼかしの前面化スタイルを適用\n- チーム構成を 4 → 3チームへ刷新（AZURE削除、CRIMSON/NOVA/GOLDEN）、各カードに背景画像を追加\n- スケジュールから AZURE 枠を削除し、終了時刻を 22:00 → 21:20 へ短縮\n- 投票JSロジック（API連携・localStorage・重複防止・VOTE_OPEN/CLOSE）は据え置き\n\nCo-Authored-By: Claude Opus 4.7 (1M context) \u003cnoreply@anthropic.com\u003e",
          "commit_dirty": false
        }
      },
      "stages": [
        {
          "name": "queued",
          "started_on": "2026-05-03T16:43:31.80923Z",
          "ended_on": "2026-05-03T16:43:31.814241Z",
          "status": "success"
        },
        {
          "name": "initialize",
          "started_on": "2026-05-03T16:43:31.814241Z",
          "ended_on": "2026-05-03T16:43:33.442281Z",
          "status": "success"
        },
        {
          "name": "clone_repo",
          "started_on": "2026-05-03T16:43:33.442281Z",
          "ended_on": "2026-05-03T16:43:35.658599Z",
          "status": "success"
        },
        {
          "name": "build",
          "started_on": "2026-05-03T16:43:35.658599Z",
          "ended_on": "2026-05-03T16:43:42.864913Z",
          "status": "success"
        },
        {
          "name": "deploy",
          "started_on": "2026-05-03T16:43:42.864913Z",
          "ended_on": "2026-05-03T16:43:52.142479Z",
          "status": "success"
        }
      ],
      "build_config": {
        "build_command": "",
        "destination_dir": "public",
        "build_caching": null,
        "root_dir": "",
        "web_analytics_tag": null,
        "web_analytics_token": null
      },
      "source": {
        "type": "github",
        "config": {
          "owner": "magurophone",
          "repo_name": "battle_fes",
          "production_branch": "master",
          "pr_comments_enabled": false
        }
      },
      "env_vars": {
        "ADMIN_TOKEN": {
          "type": "secret_text",
          "value": ""
        }
      },
      "kv_namespaces": {
        "BATTLE_FES_VOTE_STORE": {
          "namespace_id": "6a7f993b3ff1446f9a5774b3a2a50f7a"
        }
      },
      "compatibility_date": "2026-03-14",
      "compatibility_flags": [],
      "build_image_major_version": 3,
      "usage_model": "bundled",
      "aliases": null,
      "is_skipped": false,
      "production_branch": "master",
      "uses_functions": true
    },
    {
      "id": "c92f1396-c0e5-444f-bc58-f56d17ba7034",
      "short_id": "c92f1396",
      "project_id": "b923848a-fc0d-4683-8147-005c9da1c7a1",
      "project_name": "battle-fes",
      "environment": "production",
      "url": "https://c92f1396.battle-fes.pages.dev",
      "created_on": "2026-03-15T15:33:36.138888Z",
      "modified_on": "2026-03-15T15:33:40.07321Z",
      "latest_stage": {
        "name": "deploy",
        "started_on": null,
        "ended_on": "2026-03-15T15:33:40.07321Z",
        "status": "success"
      },
      "deployment_trigger": {
        "type": "ad_hoc",
        "metadata": {
          "branch": "master",
          "commit_hash": "5ca9be5cb702a725eae7dc7ddce0fa970529657c",
          "commit_message": "Add full project structure and deploy to Cloudflare Pages via GitHub\r\n\r\n- Add public/ (index.html, hero images, admin panel)\r\n- Add functions/ (vote API, admin API, KV store)\r\n- Add wrangler.toml\r\n- Fix schedule: remove 審査発表 (no judges)\r\n- Fix hero date: 2026.07.19（日）\r\n- Fix SCROLL indicator: convert to anchor link\r\n- Fix hero-sub2: remove duplicate opacity\r\n- Add pro\n\n[commit_message truncated]",
          "commit_dirty": true
        }
      },
      "stages": [
        {
          "name": "queued",
          "started_on": "2026-03-15T15:33:36.138888Z",
          "ended_on": null,
          "status": "active"
        },
        {
          "name": "initialize",
          "started_on": null,
          "ended_on": null,
          "status": "idle"
        },
        {
          "name": "clone_repo",
          "started_on": null,
          "ended_on": null,
          "status": "idle"
        },
        {
          "name": "build",
          "started_on": null,
          "ended_on": null,
          "status": "idle"
        },
        {
          "name": "deploy",
          "started_on": null,
          "ended_on": "2026-03-15T15:33:40.07321Z",
          "status": "success"
        }
      ],
      "build_config": {
        "build_command": "",
        "destination_dir": "public",
        "build_caching": null,
        "root_dir": "",
        "web_analytics_tag": null,
        "web_analytics_token": null
      },
      "source": {
        "type": "github",
        "config": {
          "owner": "magurophone",
          "repo_name": "battle_fes",
          "production_branch": "master",
          "pr_comments_enabled": false
        }
      },
      "env_vars": {
        "ADMIN_TOKEN": {
          "type": "secret_text",
          "value": ""
        }
      },
      "kv_namespaces": {
        "BATTLE_FES_VOTE_STORE": {
          "namespace_id": "6a7f993b3ff1446f9a5774b3a2a50f7a"
        }
      },
      "compatibility_date": "2026-03-14",
      "compatibility_flags": [],
      "build_image_major_version": 3,
      "usage_model": "bundled",
      "aliases": null,
      "is_skipped": false,
      "production_branch": "master",
      "uses_functions": true
    },
    {
      "id": "e1b1a4a3-99c2-4b8e-b8a8-2cd85184477a",
      "short_id": "e1b1a4a3",
      "project_id": "b923848a-fc0d-4683-8147-005c9da1c7a1",
      "project_name": "battle-fes",
      "environment": "production",
      "url": "https://e1b1a4a3.battle-fes.pages.dev",
      "created_on": "2026-03-15T15:30:25.740914Z",
      "modified_on": "2026-03-15T15:31:05.58339Z",
      "latest_stage": {
        "name": "deploy",
        "started_on": "2026-03-15T15:30:41.77342Z",
        "ended_on": "2026-03-15T15:31:05.58339Z",
        "status": "success"
      },
      "deployment_trigger": {
        "type": "ad_hoc",
        "metadata": {
          "branch": "master",
          "commit_hash": "5ca9be5cb702a725eae7dc7ddce0fa970529657c",
          "commit_message": "Add full project structure and deploy to Cloudflare Pages via GitHub\n\n- Add public/ (index.html, hero images, admin panel)\n- Add functions/ (vote API, admin API, KV store)\n- Add wrangler.toml\n- Fix schedule: remove 審査発表 (no judges)\n- Fix hero date: 2026.07.19（日）\n- Fix SCROLL indicator: convert to anchor link\n- Fix hero-sub2: remove duplicate opacity\n- Add project docs (CLAUDE.md, PROGRESS.md, PROJECT_STATUS.md)\n\nCo-Authored-By: Claude Sonnet 4.6 \u003cnoreply@anthropic.com\u003e",
          "commit_dirty": false
        }
      },
      "stages": [
        {
          "name": "queued",
          "started_on": "2026-03-15T15:30:26.203342Z",
          "ended_on": "2026-03-15T15:30:26.281862Z",
          "status": "success"
        },
        {
          "name": "initialize",
          "started_on": "2026-03-15T15:30:26.281862Z",
          "ended_on": "2026-03-15T15:30:27.974414Z",
          "status": "success"
        },
        {
          "name": "clone_repo",
          "started_on": "2026-03-15T15:30:27.974414Z",
          "ended_on": "2026-03-15T15:30:34.728901Z",
          "status": "success"
        },
        {
          "name": "build",
          "started_on": "2026-03-15T15:30:34.728901Z",
          "ended_on": "2026-03-15T15:30:41.77342Z",
          "status": "success"
        },
        {
          "name": "deploy",
          "started_on": "2026-03-15T15:30:41.77342Z",
          "ended_on": "2026-03-15T15:31:05.58339Z",
          "status": "success"
        }
      ],
      "build_config": {
        "build_command": "",
        "destination_dir": "public",
        "build_caching": null,
        "root_dir": "",
        "web_analytics_tag": null,
        "web_analytics_token": null
      },
      "source": {
        "type": "github",
        "config": {
          "owner": "magurophone",
          "repo_name": "battle_fes",
          "production_branch": "master",
          "pr_comments_enabled": false
        }
      },
      "env_vars": {},
      "kv_namespaces": {
        "BATTLE_FES_VOTE_STORE": {
          "namespace_id": "6a7f993b3ff1446f9a5774b3a2a50f7a"
        }
      },
      "compatibility_date": "2026-03-14",
      "compatibility_flags": [],
      "build_image_major_version": 3,
      "usage_model": "bundled",
      "aliases": null,
      "is_skipped": false,
      "production_branch": "master",
      "uses_functions": true
    }
  ],
  "success": true,
  "errors": [],
  "messages": [],
  "result_info": {
    "page": 3,
    "per_page": 25,
    "count": 9,
    "total_count": 59,
    "total_pages": 3
  }
}
